…
We also include “student.ID” to further distinguish the seperate datasets (each student works on a single allele).

sxn1_summary <- wngscrs_sxn1 %>% 
  group_by(E.or.C,
           gene.allele,
           allele, 
           student.ID) %>% 
  summarize(mean = mean(wing.score),
            sd = sd(wing.score),
            n = n())

We can look at the output; note that because dplyr creates “tibble” objects R only prints out a selection of columns.

sxn1_summary
#> # A tibble: 36 x 7
#> # Groups:   E.or.C, gene.allele, allele [?]
#>    E.or.C gene.allele allele          student.ID  mean      sd     n
#>    <fct>  <fct>       <fct>                <int> <dbl>   <dbl> <int>
#>  1 C      abl.1       abl[2]                   1  4.64   0.742    33
#>  2 C      abl.2       abl[04674]               2  3.91   1.44     35
#>  3 C      abl.3       Df(3L)ED223              3  4.56   1.58     27
#>  4 C      dia.1       dia[2]                  10  3    NaN         1
#>  5 C      dia.2       dia[5]                  11  3.88   1.02     16
#>  6 C      dia.3       Df(2L)ED1317            12  6.17   1.17      6
#>  7 C      fhos.1      Fhos[01629]              7  5.64   0.505    11
#>  8 C      fhos.2      Df(3L)ED4413             8  4.62   1.15     16
#>  9 C      fhos.3      Df(3L)ED4414             9  5      1        19
#> 10 C      ssh.1       slingshot[1-11]         16  5.92   1.16     12
#> # ... with 26 more rows
…
